Replication of Gollwitzer et al., 2017 by Mechanical Turk (2017, Nature Human Behavior)
…
#Create final dataframe specifically for the key analysis
OnlyKeyVariables <- TidyData %>%
  group_by(id, Scale, RandOrder) %>%
  summarise(ScaleMeans = mean(Rating))

#Spread data back out so we have a row for each participant and a column for each variable mean
OnlyKeyColumns <- OnlyKeyVariables %>%
  spread(key = Scale, value = ScaleMeans)

OnlyKeyColumns #Output final dataframe

## # A tibble: 52 x 7
## # Groups:   id [52]
##       id RandOrder  NeedForClosure Neuroticism PatternDev PoliticalOrient
##    <int> <chr>               <dbl>       <dbl>      <dbl>            <dbl>
##  1     1 SocialDev           4.13        3.00       3.87               5.
##  2     2 SocialDev           5.20        2.50       1.47               9.
##  3     3 PatternDe           4.73        1.50       1.00               9.
##  4     4 SocialDev           3.53        2.00       1.40               4.
##  5     5 PatternDe           5.20        4.50       1.27               2.
##  6     6 SocialDev           3.60        1.00       1.00               3.
##  7     7 SocialDev           4.67        1.00       1.00               1.
##  8     8 SocialDev           4.47        2.00       1.00               2.
##  9     9 SocialDev           4.47        4.00       2.93               1.
## 10    10 PatternDe           2.67        1.00       1.60               1.
## # ... with 42 more rows, and 1 more variable: SocialDev <dbl>
…
